{
    "item": {
        "Regardless of any value": { "val": "255", "unit": "" },
        "Absolute pressure [mbar]": { "val": "0", "unit": "mbar" },
        "Absolute pressure min [mbar]": { "val": "1", "unit": "mbar" },
        "Absolute pressure max [mbar]": { "val": "2", "unit": "mbar" },
        "Absolute pressure avg [mbar]": { "val": "3", "unit": "mbar" },
        "Absolute pressure MIN [mbar]": { "val": "4", "unit": "mbar" },
        "Absolute pressure MAX [mbar]": { "val": "5", "unit": "mbar" },
        "Atmospheric pressure [mbar]": { "val": "8", "unit": "mbar" },
        "Atmospheric pressure min [mbar]": { "val": "9", "unit": "mbar" },
        "Atmospheric pressure max [mbar]": { "val": "10", "unit": "mbar" },
        "Atmospheric pressure avg [mbar]": { "val": "11", "unit": "mbar" },
        "Atmospheric pressure MIN [mbar]": { "val": "12", "unit": "mbar" },
        "Atmospheric pressure MAX [mbar]": { "val": "13", "unit": "mbar" },
        "Temperature [C]": { "val": "16", "unit": "C", "factor": "10" },
        "Temperature min [C]": { "val": "17", "unit": "C", "factor": "10" },
        "Temperature max [C]": { "val": "18", "unit": "C", "factor": "10" },
        "Temperature avg [C]": { "val": "19", "unit": "C", "factor": "10" },
        "Temperature MIN [C]": { "val": "20", "unit": "C", "factor": "10" },
        "Temperature MAX [C]": { "val": "21", "unit": "C", "factor": "10" },
        "Battery level [%]": { "val": "31", "unit": "%", "factor": "327.68" },
        "Depth [m]": { "val": "32", "unit": "m", "factor": "100" },
        "Depth max [m]": { "val": "34", "unit": "m", "factor": "100" },
        "Depth avg [m]": { "val": "35", "unit": "m", "factor": "100" },
        "Depth MAX [m]": { "val": "37", "unit": "m", "factor": "100" },
        "Dive time [s]": { "val": "40", "unit": "s" },
        "Surface time [s]": { "val": "41", "unit": "s" },
        "Descent time [s]": { "val": "42", "unit": "s" },
        "Bottom time [s]": { "val": "43", "unit": "s" },
        "Ascent time [s]": { "val": "44", "unit": "s" },
        "Dive time MAX [s]": { "val": "45", "unit": "s" },
        "Dive time Total [s]": { "val": "46", "unit": "s" },
        "Vertical speed [m/s]": { "val": "48", "unit": "m/s", "factor": "100" },
        "Ascent speed max [m/s]": { "val": "49", "unit": "m/s", "factor": "100" },
        "Descent speed max [m/s]": { "val": "50", "unit": "m/s", "factor": "100" },
        "Ascent speed avg [m/s]": { "val": "51", "unit": "m/s", "factor": "100" },
        "Descent speed avg [m/s]": { "val": "52", "unit": "m/s", "factor": "100" },
        "Ascent speed MAX [m/s]": { "val": "53", "unit": "m/s", "factor": "100" },
        "Descent speed MAX [m/s]": { "val": "54", "unit": "m/s", "factor": "100" },
        "Stopwatch 0 [s]": { "val": "56", "unit": "s" },
        "Timer 1 [s]": { "val": "57", "unit": "s" },
        "Timer 2 [s]": { "val": "58", "unit": "s" },
        "Timer 3 [s]": { "val": "59", "unit": "s" }
    },
    "default": "255"
}
